// Jest Snapshot v1, https://goo.gl/fbAQLP

exports[`Counter matches its snapshot 1`] = `
<Fragment>
  <h1>
    123
  </h1>
  <Button
    className="incrementCounter"
    onClick={[Function]}
  >
    Increment
  </Button>
  <Button
    className="decrementCounter"
    onClick={[Function]}
  >
    Decrement
  </Button>
</Fragment>
`;
